patch
{

include "materials/models/survivors/survivors_it_shared.vmt"
insert
{

$baseTexture "models\survivors\manager\louis_color"
$bumpmap "models\survivors\Manager/louis_normal"
$halflambert 1
$phong 1
$phongboost "1.5"
$phongexponent 5
$phongtint "[.85 .85 1]"
$phongfresnelranges "[.3 .65 30]"
$ambientocclusion 1
}
}
