patch
{

include "materials/models/survivors/survivors_it_shared.vmt"
insert
{

$baseTexture "models\survivors\coach\coach_head"


$phongexponenttexture "models\survivors\coach\coach_head_exp"
$bumpmap "models\survivors\coach\coach_head_normal"
$phong 1
$phongboost "1.4"

$phongtint "[.85 .85 1]"
$phongfresnelranges "[.2 .5 5]"

$ambientocclusion 1
$halflambert 0
$diffuseexp "1.5"
$lightwarptexture "models\survivors\coach\coach_head_wrp"
}
}
