patch
{
include "materials/models/infected/common/l4d2/bp_head_include.vmt"
insert
{
$basetexture "models/infected/common/l4d2/cif_head_bangs"
$skintintgradient 7
$colortintgradient 14
$sheetindex 0
}
}