patch
{
include "materials/models/infected/common/l4d2/bp_head_include.vmt"
insert
{
$basetexture "models/infected/common/l4d2/cif_head_longhair"
$skintintgradient 0
$colortintgradient 11
$sheetindex 0
}
}