patch
{
include "materials/models/infected/common/l4d2/bp_body_include.vmt"
insert
{
$basetexture "models/infected/common/l4d2/cif_tshirt_skirt"
$skintintgradient 1
$colortintgradient 9
$sheetindex 3
}
}