patch
{
include "materials/models/infected/common/l4d2/bp_head_include.vmt"
insert
{
$basetexture "models/infected/common/l4d2/bphf_head_longhair"
$skintintgradient 1
$colortintgradient 9
$sheetindex 3
}
}