patch
{
include "materials/models/infected/common/l4d2/bp_body_include.vmt"
insert
{
$basetexture "models/infected/common/l4d2/bphf_tshirt_skirt"
$skintintgradient 7
$colortintgradient 14
$sheetindex 0
}
}