patch
{
include "materials/models/infected/common/l4d2/bp_body_include.vmt"
insert
{
$basetexture "models/infected/common/l4d2/cim_ceda_full"
$GRADIENTTEXTURE "models/infected/common/l4d2/ci_gradient_palette_ceda"
$phongtint "[1 1 1]"
$phongfresnelranges "[1 1 1]"
$phongboost 1
$DEFAULTPHONGEXPONENT 15
$EYEGLOW 1
$EYEGLOWCOLOR "[2 2 2]"
$EYEGLOWFLASHLIGHTBOOST 10
$skintintgradient 0
$colortintgradient 11
$sheetindex 1
}
}