patch
{
include "materials/models/infected/common/l4d2/bp_head_include.vmt"
insert
{
$basetexture "models/infected/common/l4d2/cim_head_mullet"
$skintintgradient 2
$colortintgradient 10
$sheetindex 1
}
}