patch
{
include "materials/models/infected/common/l4d2/bp_head_include.vmt"
insert
{
$burning 1
$burnstrength "0.43"
$basetexture "models/infected/common/l4d2/cim_head_centurion"
$skintintgradient 6
$colortintgradient 13
$sheetindex 3
}
}
