patch
{
include "materials/models/infected/common/l4d2/bp_body_include.vmt"
insert
{
$burning 1
$burnstrength "0.43"
$basetexture "models/infected/common/l4d2/cim_dressShirt_jeans"
$skintintgradient 0
$colortintgradient 11
$sheetindex 0
}
}
