patch
{
include "materials/models/infected/common/l4d2/bp_body_include.vmt"
insert
{
$basetexture "models/infected/common/l4d2/cim_deepsouth"
$skintintgradient 3
$colortintgradient 15
$sheetindex 2
}
}