patch
{
include "materials/models/infected/common/l4d2/bp_body_include.vmt"
insert
{
$basetexture "models/infected/common/l4d2/cim_dressShirt_jeans"
$skintintgradient 4
$colortintgradient 12
$sheetindex 2
}
}