patch
{
include "materials/models/infected/common/l4d2/bp_head_include.vmt"
insert
{
$basetexture "models/infected/common/l4d2/bphm_head_centurion"
$GRADIENTTEXTURE "models/infected/common/l4d2/ci_gradient_palette_fallen_survivor"
$skintintgradient 2
$colortintgradient 10
$sheetindex 0
}
}