patch
{
include "materials/models/infected/common/l4d2/ci_head_include.vmt"
insert
{
$basetexture "models/infected/common/l4d2/cif_head_longhair_rain"
$BLOODMASKRANGE "[0.2 1.1]"
$phongboost 2
$BURNING 1
}
}