patch
{
include "materials/models/infected/common/l4d2/ci_body_include.vmt"
insert
{
$basetexture "models/infected/common/l4d2/cif_tanktop_jeans_rain"
$detail "models/infected/common/l4d2/detail/ci_detail_mud"
$GRADIENTTEXTURE "models/infected/common/l4d2/ci_gradient_palette_rain"
$phongboost 2
$WOUNDED 1
}
}