patch
{
include "materials/models/infected/common/l4d2/ci_body_include.vmt"
insert
{
$basetexture "models/infected/common/l4d2/cim_tankTop_jeans_swamp"
$DETAIL "models/infected/common/l4d2/detail/ci_detail_algae"
$DETAILSCALE 6
$phongboost 2
$WOUNDED 1
}
}