patch
{
include "materials/models/infected/common/l4d2/ci_body_include.vmt"
insert
{
$basetexture "models/infected/common/l4d2/cim_deepsouth"
$detail "models/infected/common/l4d2/detail/ci_detail_mud"
$GRADIENTTEXTURE "models/infected/common/l4d2/ci_gradient_palette_rain"

$envmaptint "[1.0 1.0 1.0]"
}
}