patch
{
include "materials/models/infected/common/l4d2/ci_body_include.vmt"
insert
{
$basetexture "models/infected/common/l4d2/cim_mud"
$detail "models/infected/common/l4d2/detail/ci_detail_mud"
$gradienttexture "models/infected/common/l4d2/ci_gradient_palette_mud"
$detailscale 2
$phongboost 1
$BURNING 1
}
}