patch
{

include "materials/models/survivors/survivors_it_shared.vmt"
insert
{
$baseTexture "models\survivors\mechanic\mechanic_head_color"



$bumpmap "models\survivors\mechanic\mechanic_head_normal"
$phong 1
$phongboost "1.4"
$phongexponent 12
$phongtint "[.85 .85 1]"
$phongfresnelranges "[.2 .5 5]"

$ambientocclusion 1
$halflambert 0
$diffuseexp "1.5"
$lightwarptexture "models\survivors\coach\coach_head_wrp"
}
}
