VertexLitGeneric
{
$basetexture "Models\infected\common\body_wounds\combined_gib_col"
$bumpmap "Models\infected\common\body_wounds\combined_gib_normal"
$color2 "[.75 .75 .75]"
$phong 1
$phongexponent 70
$phongboost 5
$phongfresnelranges "[0.2 0.5 1.0]"
$diffuseexp "1.0"
$allowdiffusemodulation 1
}
