VertexLitGeneric
{
$baseTexture "models\v_models\Weapons\pistol/V_Pistol_Reference"
$bumpmap "effects/flat_normal"

$phongboost 1
$phongexponent 20
$phongfresnelranges "[8 16 16]"
$BASEMAPLUMINANCEPHONGMASK 1
$color2 "[1.5 1.5 1.5]"
$ambientocclusion 1
$halflambert 1
$phong 0
"GPU>=2?$phong" 1
}
