VertexLitGeneric
{
$baseTexture "models\v_models\Weapons\smg/uzi"
$bumpmap "effects/flat_normal"

$halflambert 1
$phong 1
$phongboost 1
$phongexponent 10
$phongfresnelranges "[5 5 15]"
$BASEMAPLUMINANCEPHONGMASK 1
$color2 "[ 3 3 3 ]"
"360?$color2" "[ 1.5 1.5 1.5 ]"
$ambientocclusion 1
}
