"resource/UI/customui/playerselection.res"
{
	"L4DCEPlayerSelectionPanel"
	{
		"ControlName"		"CL4DCEPlayerSelectionPanel"
		"fieldName"		"L4DCEPlayerSelectionPanel"
		"xpos"		"51"
		"ypos"		"45"
		"wide"		"800"
		"tall"		"600"
		"AutoResize"		"0"
		"PinCorner"		"4"
		"pin_corner_to_sibling"		"0"
		"pin_to_sibling_corner"		"0"
		"visible"		"1"
		"enabled"		"1"
		"tabPosition"		"0"
		"settitlebarvisible"		"1"
		"title"		"#Frame_Untitled"
	}
	"frame_topGrip"
	{
		"ControlName"		"Panel"
		"fieldName"		"frame_topGrip"
		"xpos"		"8"
		"ypos"		"0"
		"wide"		"784"
		"tall"		"5"
		"AutoResize"		"0"
		"PinCorner"		"4"
		"pin_corner_to_sibling"		"0"
		"pin_to_sibling_corner"		"0"
		"visible"		"1"
		"enabled"		"1"
		"tabPosition"		"0"
	}
	"frame_bottomGrip"
	{
		"ControlName"		"Panel"
		"fieldName"		"frame_bottomGrip"
		"xpos"		"8"
		"ypos"		"595"
		"wide"		"774"
		"tall"		"5"
		"AutoResize"		"0"
		"PinCorner"		"4"
		"pin_corner_to_sibling"		"0"
		"pin_to_sibling_corner"		"0"
		"visible"		"1"
		"enabled"		"1"
		"tabPosition"		"0"
	}
	"frame_leftGrip"
	{
		"ControlName"		"Panel"
		"fieldName"		"frame_leftGrip"
		"xpos"		"0"
		"ypos"		"8"
		"wide"		"5"
		"tall"		"584"
		"AutoResize"		"0"
		"PinCorner"		"4"
		"pin_corner_to_sibling"		"0"
		"pin_to_sibling_corner"		"0"
		"visible"		"1"
		"enabled"		"1"
		"tabPosition"		"0"
	}
	"frame_rightGrip"
	{
		"ControlName"		"Panel"
		"fieldName"		"frame_rightGrip"
		"xpos"		"795"
		"ypos"		"8"
		"wide"		"5"
		"tall"		"574"
		"AutoResize"		"0"
		"PinCorner"		"4"
		"pin_corner_to_sibling"		"0"
		"pin_to_sibling_corner"		"0"
		"visible"		"1"
		"enabled"		"1"
		"tabPosition"		"0"
	}
	"frame_tlGrip"
	{
		"ControlName"		"Panel"
		"fieldName"		"frame_tlGrip"
		"xpos"		"0"
		"ypos"		"0"
		"wide"		"8"
		"tall"		"8"
		"AutoResize"		"0"
		"PinCorner"		"4"
		"pin_corner_to_sibling"		"0"
		"pin_to_sibling_corner"		"0"
		"visible"		"1"
		"enabled"		"1"
		"tabPosition"		"0"
	}
	"frame_trGrip"
	{
		"ControlName"		"Panel"
		"fieldName"		"frame_trGrip"
		"xpos"		"792"
		"ypos"		"0"
		"wide"		"8"
		"tall"		"8"
		"AutoResize"		"0"
		"PinCorner"		"4"
		"pin_corner_to_sibling"		"0"
		"pin_to_sibling_corner"		"0"
		"visible"		"1"
		"enabled"		"1"
		"tabPosition"		"0"
	}
	"frame_blGrip"
	{
		"ControlName"		"Panel"
		"fieldName"		"frame_blGrip"
		"xpos"		"0"
		"ypos"		"592"
		"wide"		"8"
		"tall"		"8"
		"AutoResize"		"0"
		"PinCorner"		"4"
		"pin_corner_to_sibling"		"0"
		"pin_to_sibling_corner"		"0"
		"visible"		"1"
		"enabled"		"1"
		"tabPosition"		"0"
	}
	"frame_brGrip"
	{
		"ControlName"		"Panel"
		"fieldName"		"frame_brGrip"
		"xpos"		"782"
		"ypos"		"582"
		"wide"		"18"
		"tall"		"18"
		"AutoResize"		"0"
		"PinCorner"		"4"
		"pin_corner_to_sibling"		"0"
		"pin_to_sibling_corner"		"0"
		"visible"		"1"
		"enabled"		"1"
		"tabPosition"		"0"
	}
	"frame_caption"
	{
		"ControlName"		"Panel"
		"fieldName"		"frame_caption"
		"xpos"		"0"
		"ypos"		"0"
		"zpos"		"-1"
		"wide"		"790"
		"tall"		"23"
		"AutoResize"		"0"
		"PinCorner"		"4"
		"pin_corner_to_sibling"		"0"
		"pin_to_sibling_corner"		"0"
		"visible"		"1"
		"enabled"		"1"
		"tabPosition"		"0"
	}
	"frame_minimize"
	{
		"ControlName"		"Button"
		"fieldName"		"frame_minimize"
		"xpos"		"0"
		"ypos"		"0"
		"wide"		"18"
		"tall"		"18"
		"AutoResize"		"0"
		"PinCorner"		"4"
		"pin_corner_to_sibling"		"0"
		"pin_to_sibling_corner"		"0"
		"visible"		"0"
		"enabled"		"1"
		"tabPosition"		"0"
		"labelText"		"0"
		"textAlignment"		"north-west"
		"dulltext"		"0"
		"brighttext"		"0"
		"wrap"		"0"
		"centerwrap"		"0"
		"auto_wide_tocontents"		"0"
		"textinsetx"		"2"
		"textinsety"		"1"
		"default"		"0"
	}
	"frame_maximize"
	{
		"ControlName"		"Button"
		"fieldName"		"frame_maximize"
		"xpos"		"0"
		"ypos"		"0"
		"wide"		"18"
		"tall"		"18"
		"AutoResize"		"0"
		"PinCorner"		"4"
		"pin_corner_to_sibling"		"0"
		"pin_to_sibling_corner"		"0"
		"visible"		"0"
		"enabled"		"1"
		"tabPosition"		"0"
		"labelText"		"1"
		"textAlignment"		"north-west"
		"dulltext"		"0"
		"brighttext"		"0"
		"wrap"		"0"
		"centerwrap"		"0"
		"auto_wide_tocontents"		"0"
		"textinsetx"		"2"
		"textinsety"		"1"
		"default"		"0"
	}
	"frame_mintosystray"
	{
		"ControlName"		"Button"
		"fieldName"		"frame_mintosystray"
		"xpos"		"0"
		"ypos"		"0"
		"wide"		"18"
		"tall"		"18"
		"AutoResize"		"0"
		"PinCorner"		"4"
		"pin_corner_to_sibling"		"0"
		"pin_to_sibling_corner"		"0"
		"visible"		"0"
		"enabled"		"1"
		"tabPosition"		"0"
		"labelText"		"o"
		"textAlignment"		"north-west"
		"dulltext"		"0"
		"brighttext"		"0"
		"wrap"		"0"
		"centerwrap"		"0"
		"auto_wide_tocontents"		"0"
		"textinsetx"		"2"
		"textinsety"		"1"
		"command"		"MinimizeToSysTray"
		"default"		"0"
	}
	"frame_close"
	{
		"ControlName"		"Button"
		"fieldName"		"frame_close"
		"xpos"		"0"
		"ypos"		"0"
		"wide"		"18"
		"tall"		"18"
		"AutoResize"		"0"
		"PinCorner"		"4"
		"pin_corner_to_sibling"		"0"
		"pin_to_sibling_corner"		"0"
		"visible"		"0"
		"enabled"		"1"
		"tabPosition"		"0"
		"labelText"		"r"
		"textAlignment"		"north-west"
		"dulltext"		"0"
		"brighttext"		"0"
		"wrap"		"0"
		"centerwrap"		"0"
		"auto_wide_tocontents"		"0"
		"textinsetx"		"2"
		"textinsety"		"1"
		"default"		"0"
	}
	"frame_menu"
	{
		"ControlName"		"FrameSystemButton"
		"fieldName"		"frame_menu"
		"xpos"		"7"
		"ypos"		"8"
		"wide"		"18"
		"tall"		"18"
		"AutoResize"		"0"
		"PinCorner"		"4"
		"pin_corner_to_sibling"		"0"
		"pin_to_sibling_corner"		"0"
		"visible"		"1"
		"enabled"		"1"
		"tabPosition"		"0"
		"textAlignment"		"west"
		"dulltext"		"0"
		"brighttext"		"0"
		"wrap"		"0"
		"centerwrap"		"0"
		"auto_wide_tocontents"		"0"
		"textinsetx"		"0"
		"textinsety"		"0"
		"default"		"0"
	}
}
