VertexLitGeneric
{
$baseTexture "models\v_models\Weapons\sniper/v_sniper_A"

$phong 1
$phongboost 25

$phongfresnelranges "[.1 .4 1]"
$phongexponenttexture "models\v_models\Weapons\sniper/v_sniper_exp"
$basemapalphaphongmask 1
$basemapalphaenvmapmask 1
$envmap env_cubemap
$envmapfresnel 1
$envmapFresnelMinMaxExp "[0 5 .4]"
$envmaptint "[.5 .5 .5]"
$phongalbedotint 1
}
